{
    "/public/js/admin.js": "/public/js/admin.js",
    "/public/js/app.js": "/public/js/app.js",
    "/public/css/app.css": "/public/css/app.css",
    "/public/css/admin.css": "/public/css/admin.css",
    "/public/js/dashboard.js": "/public/js/dashboard.js",
    "/public/js/home.js": "/public/js/home.js",
    "/public/js/report.js": "/public/js/report.js"
}
